module github.com/pangbox/pangfiles

go 1.14

require (
	bazil.org/fuse v0.0.0-20200524192727-fb710f7dfd05
	github.com/billziss-gh/cgofuse v1.5.0
	github.com/go-restruct/restruct v1.2.0-alpha
	github.com/google/subcommands v1.2.0
	github.com/stretchr/testify v1.7.0
	golang.org/x/exp v0.0.0-20210715201039-d37aa40e8013
	golang.org/x/sys v0.0.0-20210630005230-0f9fa26af87c
	golang.org/x/text v0.3.6
)
